{"playlists": {"href": "https://api.spotify.com/v1/search?query=guilty+pleasures&type=playlist&offset=0&limit=20", "items": [{"collaborative": false, "description": "You say guilty, we say non stop bangers!", "external_urls": {"spotify": "https://open.spotify.com/playlist/37i9dQZF1DX4pUKG1kS0Ac"}, "href": "https://api.spotify.com/v1/playlists/37i9dQZF1DX4pUKG1kS0Ac", "id": "37i9dQZF1DX4pUKG1kS0Ac", "images": [{"height": null, "url": "https://i.scdn.co/image/ab67706f000000037773630113d067b9590817f4", "width": null}], "name": "Guilty Pleasures", "owner": {"display_name": "Spotify", "external_urls": {"spotify": "https://open.spotify.com/user/spotify"}, "href": "https://api.spotify.com/v1/users/spotify", "id": "spotify", "type": "user", "uri": "spotify:user:spotify"}, "primary_color": null, "public": null, "snapshot_id": "MTcyMDc5MjQ4NCwwMDAwMDAwMDE0OGQwNmE2YmRiNzQxZDk5ODdiN2RlMWVmNTYxNmE0", "tracks": {"href": "https://api.spotify.com/v1/playlists/37i9dQZF1DX4pUKG1kS0Ac/tracks", "total": 150}, "type": "playlist", "uri": "spotify:playlist:37i9dQZF1DX4pUKG1kS0Ac"}, {"collaborative": false, "description": "All of the best songs you love to listen to. Dont lie !", "external_urls": {"spotify": "https://open.spotify.com/playlist/6WVDwwqUt7YbmhYeAN6jua"}, "href": "https://api.spotify.com/v1/playlists/6WVDwwqUt7YbmhYeAN6jua", "id": "6WVDwwqUt7YbmhYeAN6jua", "images": [{"height": 640, "url": "https://mosaic.scdn.co/640/ab67616d0000b2730a77b78669d5d5d2f67f8873ab67616d0000b2731b83255ef342451b977987aaab67616d0000b27363facc42e4a35eb3aa182b59ab67616d0000b273efc6988972cb04105f002cd4", "width": 640}, {"height": 300, "url": "https://mosaic.scdn.co/300/ab67616d0000b2730a77b78669d5d5d2f67f8873ab67616d0000b2731b83255ef342451b977987aaab67616d0000b27363facc42e4a35eb3aa182b59ab67616d0000b273efc6988972cb04105f002cd4", "width": 300}, {"height": 60, "url": "https://mosaic.scdn.co/60/ab67616d0000b2730a77b78669d5d5d2f67f8873ab67616d0000b2731b83255ef342451b977987aaab67616d0000b27363facc42e4a35eb3aa182b59ab67616d0000b273efc6988972cb04105f002cd4", "width": 60}], "name": "GUILTY PLEASURES!!!\ud83d\udc4c\ud83c\udffc\ud83d\udd25\ud83d\udca5\ud83d\udca5", "owner": {"display_name": "Elliott Hearne", "external_urls": {"spotify": "https://open.spotify.com/user/21tut3n5j2bmuk2pnecwjcljy"}, "href": "https://api.spotify.com/v1/users/21tut3n5j2bmuk2pnecwjcljy", "id": "21tut3n5j2bmuk2pnecwjcljy", "type": "user", "uri": "spotify:user:21tut3n5j2bmuk2pnecwjcljy"}, "primary_color": null, "public": null, "snapshot_id": "NjczLGJjNTU3ZWFmMzZiMmQzYjg0NTAwNWFhYWFmMzliM2MwNjdmZDJhYzg=", "tracks": {"href": "https://api.spotify.com/v1/playlists/6WVDwwqUt7YbmhYeAN6jua/tracks", "total": 527}, "type": "playlist", "uri": "spotify:playlist:6WVDwwqUt7YbmhYeAN6jua"}, {"collaborative": false, "description": "", "external_urls": {"spotify": "https://open.spotify.com/playlist/1dJNCC318zqJfaxmXvj0Ln"}, "href": "https://api.spotify.com/v1/playlists/1dJNCC318zqJfaxmXvj0Ln", "id": "1dJNCC318zqJfaxmXvj0Ln", "images": [{"height": null, "url": "https://image-cdn-ak.spotifycdn.com/image/ab67706c0000bebbf68cc98c099571ad4e4a4a71", "width": null}], "name": "Can I Vibe With Y\u2019all Guilty Pleasures ", "owner": {"display_name": "CIVWYP", "external_urls": {"spotify": "https://open.spotify.com/user/cazow3"}, "href": "https://api.spotify.com/v1/users/cazow3", "id": "cazow3", "type": "user", "uri": "spotify:user:cazow3"}, "primary_color": null, "public": null, "snapshot_id": "MTM4LDhlNTE2NDZmY2NjZTg3MjE2NGUzYmI1NzNiN2NlNTI0NTU3MGUwNTI=", "tracks": {"href": "https://api.spotify.com/v1/playlists/1dJNCC318zqJfaxmXvj0Ln/tracks", "total": 109}, "type": "playlist", "uri": "spotify:playlist:1dJNCC318zqJfaxmXvj0Ln"}, {"collaborative": false, "description": "", "external_urls": {"spotify": "https://open.spotify.com/playlist/66oMeaWakdJZqGODLSNhjC"}, "href": "https://api.spotify.com/v1/playlists/66oMeaWakdJZqGODLSNhjC", "id": "66oMeaWakdJZqGODLSNhjC", "images": [{"height": null, "url": "https://image-cdn-ak.spotifycdn.com/image/ab67706c0000bebb067ae37a10b4fecefdfd6c67", "width": null}], "name": "guilty pleasure songs", "owner": {"display_name": "kc <3", "external_urls": {"spotify": "https://open.spotify.com/user/peterjgarneau"}, "href": "https://api.spotify.com/v1/users/peterjgarneau", "id": "peterjgarneau", "type": "user", "uri": "spotify:user:peterjgarneau"}, "primary_color": null, "public": null, "snapshot_id": "ODc1LGJjZWM1NTllMTA3N2M5MjJkZmIwYWNkYzE0ZjM3YTcwMWE4M2IwOWU=", "tracks": {"href": "https://api.spotify.com/v1/playlists/66oMeaWakdJZqGODLSNhjC/tracks", "total": 661}, "type": "playlist", "uri": "spotify:playlist:66oMeaWakdJZqGODLSNhjC"}, {"collaborative": false, "description": "", "external_urls": {"spotify": "https://open.spotify.com/playlist/7bllNkpKgaZAvQYaAbG9hw"}, "href": "https://api.spotify.com/v1/playlists/7bllNkpKgaZAvQYaAbG9hw", "id": "7bllNkpKgaZAvQYaAbG9hw", "images": [{"height": null, "url": "https://image-cdn-ak.spotifycdn.com/image/ab67706c0000bebbcbba6871e3444fc01ccf5ff5", "width": null}], "name": "HITSTER guilty pleasures", "owner": {"display_name": "Lisa Smits", "external_urls": {"spotify": "https://open.spotify.com/user/%28-lisa-%29"}, "href": "https://api.spotify.com/v1/users/%28-lisa-%29", "id": "(-lisa-)", "type": "user", "uri": "spotify:user:%28-lisa-%29"}, "primary_color": null, "public": null, "snapshot_id": "MzExLGQ1Y2EzNWM4N2MwMTMzNzliZTkyZGIwMDE4MzZlNWM1NDU3MzE2MTE=", "tracks": {"href": "https://api.spotify.com/v1/playlists/7bllNkpKgaZAvQYaAbG9hw/tracks", "total": 308}, "type": "playlist", "uri": "spotify:playlist:7bllNkpKgaZAvQYaAbG9hw"}, {"collaborative": false, "description": "Guilty Pleasure music picked just for you", "external_urls": {"spotify": "https://open.spotify.com/playlist/37i9dQZF1EIgj5AuizhWj0"}, "href": "https://api.spotify.com/v1/playlists/37i9dQZF1EIgj5AuizhWj0", "id": "37i9dQZF1EIgj5AuizhWj0", "images": [{"height": null, "url": "https://seed-mix-image.spotifycdn.com/v6/img/desc/Guilty%20Pleasure/en/large", "width": null}], "name": "Guilty Pleasure Mix", "owner": {"display_name": "Spotify", "external_urls": {"spotify": "https://open.spotify.com/user/spotify"}, "href": "https://api.spotify.com/v1/users/spotify", "id": "spotify", "type": "user", "uri": "spotify:user:spotify"}, "primary_color": null, "public": null, "snapshot_id": "MCwwMDAwMDAwMDhjZDcxNDZiMTdlYWNiZDk2ZDM3OWQ0ZjA5ZGYwMjUx", "tracks": {"href": "https://api.spotify.com/v1/playlists/37i9dQZF1EIgj5AuizhWj0/tracks", "total": 0}, "type": "playlist", "uri": "spotify:playlist:37i9dQZF1EIgj5AuizhWj0"}, {"collaborative": false, "description": "No shuffle mega-mixtape by @houseofjuice.se \ud83c\udf51 Jams, bangers + guilty pleasures in sections by genre. 5s crossfade. You can now support House of Juice on Patreon!", "external_urls": {"spotify": "https://open.spotify.com/playlist/7cOHDNvjw3AFkLaFuaZhmZ"}, "href": "https://api.spotify.com/v1/playlists/7cOHDNvjw3AFkLaFuaZhmZ", "id": "7cOHDNvjw3AFkLaFuaZhmZ", "images": [{"height": null, "url": "https://image-cdn-ak.spotifycdn.com/image/ab67706c0000bebb7d80b78322e557cb48f1a506", "width": null}], "name": "House of Juice", "owner": {"display_name": "Vulverine&Lovemark", "external_urls": {"spotify": "https://open.spotify.com/user/koos"}, "href": "https://api.spotify.com/v1/users/koos", "id": "koos", "type": "user", "uri": "spotify:user:koos"}, "primary_color": null, "public": null, "snapshot_id": "NDI0Miw1M2UzZmYwZWY1NTJlMWNiYjg3ZmVlMWZhMjg3ZDhhYzZmOGU1MDJm", "tracks": {"href": "https://api.spotify.com/v1/playlists/7cOHDNvjw3AFkLaFuaZhmZ/tracks", "total": 1211}, "type": "playlist", "uri": "spotify:playlist:7cOHDNvjw3AFkLaFuaZhmZ"}, {"collaborative": false, "description": "", "external_urls": {"spotify": "https://open.spotify.com/playlist/7gKhbAte4qDDy2rjbs5JkP"}, "href": "https://api.spotify.com/v1/playlists/7gKhbAte4qDDy2rjbs5JkP", "id": "7gKhbAte4qDDy2rjbs5JkP", "images": [{"height": null, "url": "https://image-cdn-ak.spotifycdn.com/image/ab67706c0000bebbb7c01cb20ac4d91e8a492987", "width": null}], "name": "Guilty Gear Strive + DLC ", "owner": {"display_name": "ASJ", "external_urls": {"spotify": "https://open.spotify.com/user/mga4ukiactgthuwkwif7vbdg2"}, "href": "https://api.spotify.com/v1/users/mga4ukiactgthuwkwif7vbdg2", "id": "mga4ukiactgthuwkwif7vbdg2", "type": "user", "uri": "spotify:user:mga4ukiactgthuwkwif7vbdg2"}, "primary_color": null, "public": null, "snapshot_id": "MTM2LDdiNWY4ZDg1ZDQ1MWMyYTgyM2MxM2VhMmYyOTg2NzYyNDJiNWYxOWE=", "tracks": {"href": "https://api.spotify.com/v1/playlists/7gKhbAte4qDDy2rjbs5JkP/tracks", "total": 33}, "type": "playlist", "uri": "spotify:playlist:7gKhbAte4qDDy2rjbs5JkP"}, {"collaborative": false, "description": "all guilt. all pleasure. the ultimate list of guilty bangers. ", "external_urls": {"spotify": "https://open.spotify.com/playlist/5M1AJO2XuksWQOdjwJwVEO"}, "href": "https://api.spotify.com/v1/playlists/5M1AJO2XuksWQOdjwJwVEO", "id": "5M1AJO2XuksWQOdjwJwVEO", "images": [{"height": 640, "url": "https://mosaic.scdn.co/640/ab67616d0000b273184227f002623fc19f44551aab67616d0000b2732160c02bc56f192df0f4986bab67616d0000b273476cdf5837ae39eee951cc15ab67616d0000b273a111f7769013f1731e9c697c", "width": 640}, {"height": 300, "url": "https://mosaic.scdn.co/300/ab67616d0000b273184227f002623fc19f44551aab67616d0000b2732160c02bc56f192df0f4986bab67616d0000b273476cdf5837ae39eee951cc15ab67616d0000b273a111f7769013f1731e9c697c", "width": 300}, {"height": 60, "url": "https://mosaic.scdn.co/60/ab67616d0000b273184227f002623fc19f44551aab67616d0000b2732160c02bc56f192df0f4986bab67616d0000b273476cdf5837ae39eee951cc15ab67616d0000b273a111f7769013f1731e9c697c", "width": 60}], "name": "the guiltiest of pleasures", "owner": {"display_name": "john the big music guy", "external_urls": {"spotify": "https://open.spotify.com/user/1233428834"}, "href": "https://api.spotify.com/v1/users/1233428834", "id": "1233428834", "type": "user", "uri": "spotify:user:1233428834"}, "primary_color": null, "public": null, "snapshot_id": "Mjc1LDljODI4MjIxM2Y5NDJkOWUyNDI3ODVjMTNjYTc0MjllOGY4MDkwNjU=", "tracks": {"href": "https://api.spotify.com/v1/playlists/5M1AJO2XuksWQOdjwJwVEO/tracks", "total": 141}, "type": "playlist", "uri": "spotify:playlist:5M1AJO2XuksWQOdjwJwVEO"}, {"collaborative": false, "description": "Mostly heavier beats. A few slightly outside of 150-160bpm b&#x2F;c I like them. Some guilty pleasures. Always aim to add more ladies to this mix.", "external_urls": {"spotify": "https://open.spotify.com/playlist/4veoP8jDlOfq8zexjcxjpP"}, "href": "https://api.spotify.com/v1/playlists/4veoP8jDlOfq8zexjcxjpP", "id": "4veoP8jDlOfq8zexjcxjpP", "images": [{"height": 640, "url": "https://mosaic.scdn.co/640/ab67616d0000b273229411bccce65156241b6190ab67616d0000b27333ebdffaa447ff19ce9f24bbab67616d0000b2733875a3c74a691885d2df0996ab67616d0000b273a191830c8b300bc71c2faac7", "width": 640}, {"height": 300, "url": "https://mosaic.scdn.co/300/ab67616d0000b273229411bccce65156241b6190ab67616d0000b27333ebdffaa447ff19ce9f24bbab67616d0000b2733875a3c74a691885d2df0996ab67616d0000b273a191830c8b300bc71c2faac7", "width": 300}, {"height": 60, "url": "https://mosaic.scdn.co/60/ab67616d0000b273229411bccce65156241b6190ab67616d0000b27333ebdffaa447ff19ce9f24bbab67616d0000b2733875a3c74a691885d2df0996ab67616d0000b273a191830c8b300bc71c2faac7", "width": 60}], "name": "150-160(ish) BPM Rap For Running", "owner": {"display_name": "Jackie AK", "external_urls": {"spotify": "https://open.spotify.com/user/1217548129"}, "href": "https://api.spotify.com/v1/users/1217548129", "id": "1217548129", "type": "user", "uri": "spotify:user:1217548129"}, "primary_color": null, "public": null, "snapshot_id": "MTQ0LDFkMDU1Y2ZlMjIxNjdmODIwYTc4NGIyZjA3NDZlZjQ4YmJiNGRlMTk=", "tracks": {"href": "https://api.spotify.com/v1/playlists/4veoP8jDlOfq8zexjcxjpP/tracks", "total": 122}, "type": "playlist", "uri": "spotify:playlist:4veoP8jDlOfq8zexjcxjpP"}, {"collaborative": false, "description": "With Chappell Roan, Sabrina Carpenter, Rene\u00e9 Rapp and more", "external_urls": {"spotify": "https://open.spotify.com/playlist/37i9dQZF1E8MbTNbF2S1Vv"}, "href": "https://api.spotify.com/v1/playlists/37i9dQZF1E8MbTNbF2S1Vv", "id": "37i9dQZF1E8MbTNbF2S1Vv", "images": [{"height": null, "url": "https://pickasso.spotifycdn.com/image/ab67c0de0000deef/dt/v1/img/radio/track/0q8TNCQhwnDwnzq38IVV4l/en", "width": null}], "name": "Guilty Pleasure Radio", "owner": {"display_name": "Spotify", "external_urls": {"spotify": "https://open.spotify.com/user/spotify"}, "href": "https://api.spotify.com/v1/users/spotify", "id": "spotify", "type": "user", "uri": "spotify:user:spotify"}, "primary_color": null, "public": null, "snapshot_id": "MTczMDkyMjA2MywwMDAwMDAwMGI1M2MyYjQyN2Y3NGRmNzI3NzM4YTVhN2RlYWRiNDFk", "tracks": {"href": "https://api.spotify.com/v1/playlists/37i9dQZF1E8MbTNbF2S1Vv/tracks", "total": 50}, "type": "playlist", "uri": "spotify:playlist:37i9dQZF1E8MbTNbF2S1Vv"}, {"collaborative": false, "description": "", "external_urls": {"spotify": "https://open.spotify.com/playlist/7pmMasWux3RubQl2bxcCAW"}, "href": "https://api.spotify.com/v1/playlists/7pmMasWux3RubQl2bxcCAW", "id": "7pmMasWux3RubQl2bxcCAW", "images": [{"height": null, "url": "https://image-cdn-ak.spotifycdn.com/image/ab67706c0000bebb790db6b5692129b737e4a3a7", "width": null}], "name": "Guilty pleasures \ud83d\udc83", "owner": {"display_name": "Tara Paige", "external_urls": {"spotify": "https://open.spotify.com/user/12170296415"}, "href": "https://api.spotify.com/v1/users/12170296415", "id": "12170296415", "type": "user", "uri": "spotify:user:12170296415"}, "primary_color": null, "public": null, "snapshot_id": "Mjg1LDg1MmQwODIzYjI2NzU3YjUzZDVkZjU3ZmFjMTRlODRjMzQ3ZTE2NjE=", "tracks": {"href": "https://api.spotify.com/v1/playlists/7pmMasWux3RubQl2bxcCAW/tracks", "total": 281}, "type": "playlist", "uri": "spotify:playlist:7pmMasWux3RubQl2bxcCAW"}, {"collaborative": false, "description": "", "external_urls": {"spotify": "https://open.spotify.com/playlist/0AZx8Xj1iJ3vM62W1Md8io"}, "href": "https://api.spotify.com/v1/playlists/0AZx8Xj1iJ3vM62W1Md8io", "id": "0AZx8Xj1iJ3vM62W1Md8io", "images": [{"height": 640, "url": "https://mosaic.scdn.co/640/ab67616d0000b27303dadde4d9d305c1c3e0d91cab67616d0000b273bc3ada3a19bb4e657f10917eab67616d0000b273d3a54bd30367d97d61899babab67616d0000b273f7ec724fbf97a30869d06240", "width": 640}, {"height": 300, "url": "https://mosaic.scdn.co/300/ab67616d0000b27303dadde4d9d305c1c3e0d91cab67616d0000b273bc3ada3a19bb4e657f10917eab67616d0000b273d3a54bd30367d97d61899babab67616d0000b273f7ec724fbf97a30869d06240", "width": 300}, {"height": 60, "url": "https://mosaic.scdn.co/60/ab67616d0000b27303dadde4d9d305c1c3e0d91cab67616d0000b273bc3ada3a19bb4e657f10917eab67616d0000b273d3a54bd30367d97d61899babab67616d0000b273f7ec724fbf97a30869d06240", "width": 60}], "name": "2000s Guilty Pleasures", "owner": {"display_name": "Pax", "external_urls": {"spotify": "https://open.spotify.com/user/1251103564"}, "href": "https://api.spotify.com/v1/users/1251103564", "id": "1251103564", "type": "user", "uri": "spotify:user:1251103564"}, "primary_color": null, "public": null, "snapshot_id": "NDg1LGFjNzQ4OGI5N2U3YjRiNWIwNGU4NjAyODhiMzcyNzllYmE3NGU3OGI=", "tracks": {"href": "https://api.spotify.com/v1/playlists/0AZx8Xj1iJ3vM62W1Md8io/tracks", "total": 358}, "type": "playlist", "uri": "spotify:playlist:0AZx8Xj1iJ3vM62W1Md8io"}, {"collaborative": false, "description": "", "external_urls": {"spotify": "https://open.spotify.com/playlist/0dIJa1wwEXvVR55ksY8PFf"}, "href": "https://api.spotify.com/v1/playlists/0dIJa1wwEXvVR55ksY8PFf", "id": "0dIJa1wwEXvVR55ksY8PFf", "images": [{"height": null, "url": "https://image-cdn-ak.spotifycdn.com/image/ab67706c0000bebb37070f03cd57d85a0f524379", "width": null}], "name": "my embarrassing guilty pleasure songs", "owner": {"display_name": "kenzie dudeck", "external_urls": {"spotify": "https://open.spotify.com/user/kenzie.dudeck"}, "href": "https://api.spotify.com/v1/users/kenzie.dudeck", "id": "kenzie.dudeck", "type": "user", "uri": "spotify:user:kenzie.dudeck"}, "primary_color": null, "public": null, "snapshot_id": "NDQsYmZiZDY0ODA1MGJmMzQxMzIzYmZiNmIzNmU4NDBhMmU0Zjc1MjkzYQ==", "tracks": {"href": "https://api.spotify.com/v1/playlists/0dIJa1wwEXvVR55ksY8PFf/tracks", "total": 31}, "type": "playlist", "uri": "spotify:playlist:0dIJa1wwEXvVR55ksY8PFf"}, {"collaborative": false, "description": "", "external_urls": {"spotify": "https://open.spotify.com/playlist/1tbbYyCm8jo9X8rScopzWX"}, "href": "https://api.spotify.com/v1/playlists/1tbbYyCm8jo9X8rScopzWX", "id": "1tbbYyCm8jo9X8rScopzWX", "images": [{"height": null, "url": "https://image-cdn-ak.spotifycdn.com/image/ab67706c0000bebb68fa0fcb87669f47aa6379ad", "width": null}], "name": "90's GUILTY PLEASURES", "owner": {"display_name": "DJ E-Rock", "external_urls": {"spotify": "https://open.spotify.com/user/bassx"}, "href": "https://api.spotify.com/v1/users/bassx", "id": "bassx", "type": "user", "uri": "spotify:user:bassx"}, "primary_color": null, "public": null, "snapshot_id": "Mzc2LDgyMjA4NWVmMjk2OTIwODM3M2Q1NjBkZjQzNTA3ZjU4NGNjOTEwMzg=", "tracks": {"href": "https://api.spotify.com/v1/playlists/1tbbYyCm8jo9X8rScopzWX/tracks", "total": 217}, "type": "playlist", "uri": "spotify:playlist:1tbbYyCm8jo9X8rScopzWX"}, {"collaborative": false, "description": "", "external_urls": {"spotify": "https://open.spotify.com/playlist/1TvlizJpqmHbRW5VaOcq0l"}, "href": "https://api.spotify.com/v1/playlists/1TvlizJpqmHbRW5VaOcq0l", "id": "1TvlizJpqmHbRW5VaOcq0l", "images": [{"height": null, "url": "https://image-cdn-ak.spotifycdn.com/image/ab67706c0000bebbfbe69e05e60fbe6a02c2cb57", "width": null}], "name": "guilty pleasures", "owner": {"display_name": "kwiuts", "external_urls": {"spotify": "https://open.spotify.com/user/tefysarai.sanchez"}, "href": "https://api.spotify.com/v1/users/tefysarai.sanchez", "id": "tefysarai.sanchez", "type": "user", "uri": "spotify:user:tefysarai.sanchez"}, "primary_color": null, "public": null, "snapshot_id": "OTc5LGEyMzMyYWFjMTE1MTJiNzY5MDc0YzYzMTMxNDg0ZDVmMTkwMjY1ZmE=", "tracks": {"href": "https://api.spotify.com/v1/playlists/1TvlizJpqmHbRW5VaOcq0l/tracks", "total": 582}, "type": "playlist", "uri": "spotify:playlist:1TvlizJpqmHbRW5VaOcq0l"}, {"collaborative": false, "description": "my fav guilty pleasures , Jay Chou , Ronghao Li , Rainie Yang , Leehom Wangm JJ Lin , Joker Xue , Hebe Tien , Kelly Yu , Eric Chou, G.E.M , Mayday , Andrew Tan , Eason Chan , Sam Lee , A-Lin , Yoga Lin , David Tao , Jolin Tsai , Karen Mok , Sodagreen , Tiger Hu , Claire Kuo , Crowd Lu", "external_urls": {"spotify": "https://open.spotify.com/playlist/4jvqS7GavhRls9nwSTaDS8"}, "href": "https://api.spotify.com/v1/playlists/4jvqS7GavhRls9nwSTaDS8", "id": "4jvqS7GavhRls9nwSTaDS8", "images": [{"height": null, "url": "https://image-cdn-ak.spotifycdn.com/image/ab67706c0000bebbaad95cf28c89eb88896566aa", "width": null}], "name": "Best of Chinese POP ", "owner": {"display_name": "\u22c6\u02da\u0fd4 rui \ud835\udf17\ud835\udf1a\u02da\u22c6", "external_urls": {"spotify": "https://open.spotify.com/user/3162z7i3i7tejk4ipbfoznoybupq"}, "href": "https://api.spotify.com/v1/users/3162z7i3i7tejk4ipbfoznoybupq", "id": "3162z7i3i7tejk4ipbfoznoybupq", "type": "user", "uri": "spotify:user:3162z7i3i7tejk4ipbfoznoybupq"}, "primary_color": null, "public": null, "snapshot_id": "OTM4LDllZWQ1MDFlNDY3YjVmZGU4NjFiYzcyOGZhM2FhZTNhMjU1ZjBhMTE=", "tracks": {"href": "https://api.spotify.com/v1/playlists/4jvqS7GavhRls9nwSTaDS8/tracks", "total": 873}, "type": "playlist", "uri": "spotify:playlist:4jvqS7GavhRls9nwSTaDS8"}, {"collaborative": false, "description": "With Cobra Starship, The Academy Is..., Cute Is What We Aim For and more", "external_urls": {"spotify": "https://open.spotify.com/playlist/37i9dQZF1E8MIrH2mZITpj"}, "href": "https://api.spotify.com/v1/playlists/37i9dQZF1E8MIrH2mZITpj", "id": "37i9dQZF1E8MIrH2mZITpj", "images": [{"height": null, "url": "https://pickasso.spotifycdn.com/image/ab67c0de0000deef/dt/v1/img/radio/track/6OeglDMxrFvhmHxegrNLz2/en", "width": null}], "name": "Guilty Pleasure Radio", "owner": {"display_name": "Spotify", "external_urls": {"spotify": "https://open.spotify.com/user/spotify"}, "href": "https://api.spotify.com/v1/users/spotify", "id": "spotify", "type": "user", "uri": "spotify:user:spotify"}, "primary_color": null, "public": null, "snapshot_id": "MTczMDkyMjA2MywwMDAwMDAwMDJhZjk3ZTc2ODQ2YjA5NzhhODY1MDgyNWQwNzJlMThh", "tracks": {"href": "https://api.spotify.com/v1/playlists/37i9dQZF1E8MIrH2mZITpj/tracks", "total": 50}, "type": "playlist", "uri": "spotify:playlist:37i9dQZF1E8MIrH2mZITpj"}, {"collaborative": false, "description": "throwback bangers, or questionable songs", "external_urls": {"spotify": "https://open.spotify.com/playlist/0jniFXcwmrcOa39znrGS3k"}, "href": "https://api.spotify.com/v1/playlists/0jniFXcwmrcOa39znrGS3k", "id": "0jniFXcwmrcOa39znrGS3k", "images": [{"height": null, "url": "https://image-cdn-ak.spotifycdn.com/image/ab67706c0000bebba19ee32838c81fe78b7675f5", "width": null}], "name": "guilty pleasures", "owner": {"display_name": "megan", "external_urls": {"spotify": "https://open.spotify.com/user/tpklcb1n594e0z5aw6iitus7l"}, "href": "https://api.spotify.com/v1/users/tpklcb1n594e0z5aw6iitus7l", "id": "tpklcb1n594e0z5aw6iitus7l", "type": "user", "uri": "spotify:user:tpklcb1n594e0z5aw6iitus7l"}, "primary_color": null, "public": null, "snapshot_id": "MTA4NCwyYWIzYTdmNDIxMDljODEzODY2ODdiM2E0MmY1ZTE3OWQwMGI1OGNl", "tracks": {"href": "https://api.spotify.com/v1/playlists/0jniFXcwmrcOa39znrGS3k/tracks", "total": 766}, "type": "playlist", "uri": "spotify:playlist:0jniFXcwmrcOa39znrGS3k"}, {"collaborative": false, "description": "", "external_urls": {"spotify": "https://open.spotify.com/playlist/5nQTe1T43f1IpbKzyC6JzI"}, "href": "https://api.spotify.com/v1/playlists/5nQTe1T43f1IpbKzyC6JzI", "id": "5nQTe1T43f1IpbKzyC6JzI", "images": [{"height": null, "url": "https://image-cdn-ak.spotifycdn.com/image/ab67706c0000bebb63bd36310c0ac9f83ed0384b", "width": null}], "name": "guilty pleasures", "owner": {"display_name": "STYLA", "external_urls": {"spotify": "https://open.spotify.com/user/y0occpdlk1rnenemomtvo749h"}, "href": "https://api.spotify.com/v1/users/y0occpdlk1rnenemomtvo749h", "id": "y0occpdlk1rnenemomtvo749h", "type": "user", "uri": "spotify:user:y0occpdlk1rnenemomtvo749h"}, "primary_color": null, "public": null, "snapshot_id": "MjU1OSxlNjEzMmJmMzRhM2ZjNTkxNDgxZWY2YmJmM2FmNDkwZWNlMTQ0Mjc2", "tracks": {"href": "https://api.spotify.com/v1/playlists/5nQTe1T43f1IpbKzyC6JzI/tracks", "total": 258}, "type": "playlist", "uri": "spotify:playlist:5nQTe1T43f1IpbKzyC6JzI"}], "limit": 20, "next": "https://api.spotify.com/v1/search?query=guilty+pleasures&type=playlist&offset=20&limit=20", "offset": 0, "previous": null, "total": 1000}}